{
  "canvas": {
    "version": "2.2.13",
    "width": 2000,
    "height": 2000,
    "scrollTop": -246.76369999999991,
    "scrollLeft": -64.97930000000001,
    "zoomLevel": 0.9,
    "show": {
      "tableComment": true,
      "columnComment": true,
      "columnDataType": true,
      "columnDefault": true,
      "columnAutoIncrement": false,
      "columnPrimaryKey": true,
      "columnUnique": false,
      "columnNotNull": true,
      "relationship": true
    },
    "database": "MSSQL",
    "databaseName": "education",
    "canvasType": "ERD",
    "language": "GraphQL",
    "tableCase": "pascalCase",
    "columnCase": "camelCase",
    "highlightTheme": "MonokaiSublime",
    "bracketType": "none",
    "setting": {
      "relationshipDataTypeSync": true,
      "relationshipOptimization": false,
      "columnOrder": [
        "columnName",
        "columnDataType",
        "columnNotNull",
        "columnUnique",
        "columnAutoIncrement",
        "columnDefault",
        "columnComment"
      ]
    },
    "pluginSerializationMap": {}
  },
  "table": {
    "tables": [
      {
        "id": "f82449eb-7b6f-405e-84ab-6cb9f6969a9a",
        "name": "tb_education_plan",
        "comment": "교육 계획",
        "columns": [
          {
            "id": "6a4d1f04-6e3e-48a7-939f-d415d5f49e5c",
            "name": "id",
            "comment": "",
            "dataType": "int",
            "default": "",
            "option": {
              "autoIncrement": false,
              "primaryKey": true,
              "unique": false,
              "notNull": true
            },
            "ui": {
              "active": false,
              "pk": true,
              "fk": false,
              "pfk": false,
              "widthName": 60,
              "widthComment": 60,
              "widthDataType": 60,
              "widthDefault": 60
            }
          },
          {
            "id": "ae208691-6824-4634-ad28-771c6bf71e83",
            "name": "name",
            "comment": "계획이름",
            "dataType": "varchar",
            "default": "",
            "option": {
              "autoIncrement": false,
              "primaryKey": false,
              "unique": false,
              "notNull": true
            },
            "ui": {
              "active": false,
              "pk": false,
              "fk": false,
              "pfk": false,
              "widthName": 60,
              "widthComment": 60,
              "widthDataType": 60,
              "widthDefault": 60
            }
          },
          {
            "id": "4a5fe026-4128-4436-835e-63ab06f21a65",
            "name": "edu_type",
            "comment": "교육유형",
            "dataType": "char",
            "default": "",
            "option": {
              "autoIncrement": false,
              "primaryKey": false,
              "unique": false,
              "notNull": true
            },
            "ui": {
              "active": false,
              "pk": false,
              "fk": false,
              "pfk": false,
              "widthName": 60,
              "widthComment": 60,
              "widthDataType": 60,
              "widthDefault": 60
            }
          },
          {
            "id": "5fa81e95-e580-493f-8ce8-1503ed198f1b",
            "name": "status",
            "comment": "상태(",
            "dataType": "char",
            "default": "N",
            "option": {
              "autoIncrement": false,
              "primaryKey": false,
              "unique": false,
              "notNull": true
            },
            "ui": {
              "active": false,
              "pk": false,
              "fk": false,
              "pfk": false,
              "widthName": 60,
              "widthComment": 60,
              "widthDataType": 60,
              "widthDefault": 60
            }
          },
          {
            "id": "59f05676-e111-4b21-a63f-684230f3353a",
            "name": "create_time",
            "comment": "등록시간",
            "dataType": "datetime",
            "default": "Current_time()",
            "option": {
              "autoIncrement": false,
              "primaryKey": false,
              "unique": false,
              "notNull": true
            },
            "ui": {
              "active": false,
              "pk": false,
              "fk": false,
              "pfk": false,
              "widthName": 69.919921875,
              "widthComment": 60,
              "widthDataType": 60,
              "widthDefault": 85.79541015625
            }
          },
          {
            "id": "f59940e1-661d-4226-8de6-15efb8a5df25",
            "name": "create_id",
            "comment": "작성자",
            "dataType": "int",
            "default": "",
            "option": {
              "autoIncrement": false,
              "primaryKey": false,
              "unique": false,
              "notNull": true
            },
            "ui": {
              "active": false,
              "pk": false,
              "fk": false,
              "pfk": false,
              "widthName": 60,
              "widthComment": 60,
              "widthDataType": 60,
              "widthDefault": 60
            }
          },
          {
            "id": "cb50a3ca-0af0-4363-9c45-c545f9876671",
            "name": "upd_time",
            "comment": "수정시간",
            "dataType": "datetime",
            "default": "",
            "option": {
              "autoIncrement": false,
              "primaryKey": false,
              "unique": false,
              "notNull": false
            },
            "ui": {
              "active": false,
              "pk": false,
              "fk": false,
              "pfk": false,
              "widthName": 60,
              "widthComment": 60,
              "widthDataType": 60,
              "widthDefault": 60
            }
          },
          {
            "id": "e7bba584-52a3-4877-828b-d5138804eaaf",
            "name": "upd_id",
            "comment": "",
            "dataType": "int",
            "default": "",
            "option": {
              "autoIncrement": false,
              "primaryKey": false,
              "unique": false,
              "notNull": false
            },
            "ui": {
              "active": false,
              "pk": false,
              "fk": false,
              "pfk": false,
              "widthName": 60,
              "widthComment": 60,
              "widthDataType": 60,
              "widthDefault": 60
            }
          },
          {
            "id": "d136e44f-ddf9-41e1-91df-8de86be5b4f2",
            "name": "edu_user_id",
            "comment": "담당자",
            "dataType": "int",
            "default": "",
            "option": {
              "autoIncrement": false,
              "primaryKey": false,
              "unique": false,
              "notNull": false
            },
            "ui": {
              "active": false,
              "pk": false,
              "fk": true,
              "pfk": false,
              "widthName": 73.55712890625,
              "widthComment": 60,
              "widthDataType": 60,
              "widthDefault": 60
            }
          }
        ],
        "ui": {
          "active": true,
          "left": 188,
          "top": 470,
          "zIndex": 61,
          "widthName": 108.259765625,
          "widthComment": 60
        },
        "visible": true
      },
      {
        "id": "b2f2adb1-2c5b-402b-af21-c43aaaa56712",
        "name": "tb_approval",
        "comment": "전자 결재 테이블",
        "columns": [
          {
            "id": "2209d2b4-3430-40f0-be1d-c9a827cd680f",
            "name": "id",
            "comment": "",
            "dataType": "int",
            "default": "",
            "option": {
              "autoIncrement": false,
              "primaryKey": true,
              "unique": false,
              "notNull": true
            },
            "ui": {
              "active": false,
              "pk": true,
              "fk": false,
              "pfk": false,
              "widthName": 60,
              "widthComment": 60,
              "widthDataType": 60,
              "widthDefault": 60
            }
          },
          {
            "id": "232103c3-2a79-452b-89a5-76a8d0cd1b97",
            "name": "app_type",
            "comment": "교육.계획,완료",
            "dataType": "char",
            "default": "'E'",
            "option": {
              "autoIncrement": false,
              "primaryKey": false,
              "unique": false,
              "notNull": true
            },
            "ui": {
              "active": false,
              "pk": false,
              "fk": false,
              "pfk": false,
              "widthName": 60,
              "widthComment": 87.2236328125,
              "widthDataType": 60,
              "widthDefault": 60
            }
          },
          {
            "id": "d434d1ac-a9df-4c0d-8ed7-527eefe153b1",
            "name": "app_id",
            "comment": "승인 아이디",
            "dataType": "int",
            "default": "",
            "option": {
              "autoIncrement": false,
              "primaryKey": false,
              "unique": false,
              "notNull": true
            },
            "ui": {
              "active": false,
              "pk": false,
              "fk": true,
              "pfk": false,
              "widthName": 60,
              "widthComment": 70.61181640625,
              "widthDataType": 60,
              "widthDefault": 60
            }
          },
          {
            "id": "b660f97a-1956-47ad-a6df-fcf8d5f289b5",
            "name": "create_time",
            "comment": "",
            "dataType": "datetime",
            "default": "Current_time()",
            "option": {
              "autoIncrement": false,
              "primaryKey": false,
              "unique": false,
              "notNull": true
            },
            "ui": {
              "active": false,
              "pk": false,
              "fk": false,
              "pfk": false,
              "widthName": 69.919921875,
              "widthComment": 60,
              "widthDataType": 60,
              "widthDefault": 85.79541015625
            }
          }
        ],
        "ui": {
          "active": false,
          "left": 152,
          "top": 101,
          "zIndex": 1,
          "widthName": 69.93896484375,
          "widthComment": 100.2236328125
        },
        "visible": true
      },
      {
        "id": "c38a0234-cb8e-4ab2-a28c-7737d0ed7029",
        "name": "tb_education plan_user",
        "comment": "교육 수강생",
        "columns": [
          {
            "id": "fc8d993b-6b62-438c-9d73-a0447725d21c",
            "name": "id",
            "comment": "",
            "dataType": "int",
            "default": "",
            "option": {
              "autoIncrement": false,
              "primaryKey": true,
              "unique": false,
              "notNull": true
            },
            "ui": {
              "active": false,
              "pk": true,
              "fk": false,
              "pfk": false,
              "widthName": 60,
              "widthComment": 60,
              "widthDataType": 60,
              "widthDefault": 60
            }
          },
          {
            "id": "e17ea8b2-3d2d-42bb-ad68-d0e97fefd359",
            "name": "",
            "comment": "",
            "dataType": "",
            "default": "",
            "option": {
              "autoIncrement": false,
              "primaryKey": false,
              "unique": false,
              "notNull": false
            },
            "ui": {
              "active": false,
              "pk": false,
              "fk": false,
              "pfk": false,
              "widthName": 60,
              "widthComment": 60,
              "widthDataType": 60,
              "widthDefault": 60
            }
          },
          {
            "id": "0883e254-7eff-4be6-bf79-3a81bc456339",
            "name": "plan_id",
            "comment": "",
            "dataType": "int",
            "default": "",
            "option": {
              "autoIncrement": false,
              "primaryKey": false,
              "unique": false,
              "notNull": true
            },
            "ui": {
              "active": false,
              "pk": false,
              "fk": true,
              "pfk": false,
              "widthName": 60,
              "widthComment": 60,
              "widthDataType": 60,
              "widthDefault": 60
            }
          }
        ],
        "ui": {
          "active": false,
          "left": 789.3798,
          "top": 551.4294,
          "zIndex": 28,
          "widthName": 137.16064453125,
          "widthComment": 70.61181640625
        },
        "visible": true
      },
      {
        "id": "8aa339b3-2214-4e02-88ff-2821630915b5",
        "name": "tb_user",
        "comment": "",
        "columns": [
          {
            "id": "8bbfc13d-47a8-41c5-8c5a-c628eb7e1f94",
            "name": "id",
            "comment": "",
            "dataType": "int",
            "default": "",
            "option": {
              "autoIncrement": false,
              "primaryKey": false,
              "unique": false,
              "notNull": false
            },
            "ui": {
              "active": false,
              "pk": false,
              "fk": false,
              "pfk": false,
              "widthName": 60,
              "widthComment": 60,
              "widthDataType": 60,
              "widthDefault": 60
            }
          },
          {
            "id": "d1e4772b-f633-4b6b-962a-6522c31d5a00",
            "name": "",
            "comment": "",
            "dataType": "int",
            "default": "",
            "option": {
              "autoIncrement": false,
              "primaryKey": true,
              "unique": false,
              "notNull": true
            },
            "ui": {
              "active": false,
              "pk": true,
              "fk": false,
              "pfk": false,
              "widthName": 60,
              "widthComment": 60,
              "widthDataType": 60,
              "widthDefault": 60
            }
          }
        ],
        "ui": {
          "active": false,
          "left": 789,
          "top": 183.1111,
          "zIndex": 48,
          "widthName": 60,
          "widthComment": 60
        },
        "visible": true
      }
    ],
    "indexes": []
  },
  "memo": {
    "memos": []
  },
  "relationship": {
    "relationships": [
      {
        "id": "9f4503a3-32c3-4ea1-961a-dd1b7542b5ca",
        "identification": false,
        "relationshipType": "OneN",
        "startRelationshipType": "Dash",
        "start": {
          "tableId": "f82449eb-7b6f-405e-84ab-6cb9f6969a9a",
          "columnIds": [
            "6a4d1f04-6e3e-48a7-939f-d415d5f49e5c"
          ],
          "x": 381.17626953125,
          "y": 470,
          "direction": "top"
        },
        "end": {
          "tableId": "b2f2adb1-2c5b-402b-af21-c43aaaa56712",
          "columnIds": [
            "d434d1ac-a9df-4c0d-8ed7-527eefe153b1"
          ],
          "x": 356.969482421875,
          "y": 252,
          "direction": "bottom"
        },
        "constraintName": "fk_tb_education_plan_to_tb_approval",
        "visible": true
      },
      {
        "id": "26451570-62c6-4f29-98aa-6c708682be8c",
        "identification": false,
        "relationshipType": "OneN",
        "startRelationshipType": "Dash",
        "start": {
          "tableId": "f82449eb-7b6f-405e-84ab-6cb9f6969a9a",
          "columnIds": [
            "6a4d1f04-6e3e-48a7-939f-d415d5f49e5c"
          ],
          "x": 574.3525390625,
          "y": 660.125,
          "direction": "right"
        },
        "end": {
          "tableId": "c38a0234-cb8e-4ab2-a28c-7737d0ed7029",
          "columnIds": [
            "0883e254-7eff-4be6-bf79-3a81bc456339"
          ],
          "x": 789.3798,
          "y": 616.6794,
          "direction": "left"
        },
        "constraintName": "fk_tb_education_plan_to_tb_education plan_user",
        "visible": true
      },
      {
        "id": "abffe01e-9597-4ddd-982e-f6ee002ce0d7",
        "identification": false,
        "relationshipType": "OneOnly",
        "startRelationshipType": "Ring",
        "start": {
          "tableId": "8aa339b3-2214-4e02-88ff-2821630915b5",
          "columnIds": [
            "d1e4772b-f633-4b6b-962a-6522c31d5a00"
          ],
          "x": 789,
          "y": 238.1111,
          "direction": "left"
        },
        "end": {
          "tableId": "f82449eb-7b6f-405e-84ab-6cb9f6969a9a",
          "columnIds": [
            "d136e44f-ddf9-41e1-91df-8de86be5b4f2"
          ],
          "x": 574.3525390625,
          "y": 533.375,
          "direction": "right"
        },
        "constraintName": "fk_tb_user_to_tb_education_plan",
        "visible": true
      }
    ]
  }
}